%YAML 1.1
%TAG !u! tag:unity3d.com,2011:
--- !u!114 &11400000
MonoBehaviour:
  m_ObjectHideFlags: 0
  m_CorrespondingSourceObject: {fileID: 0}
  m_PrefabInstance: {fileID: 0}
  m_PrefabAsset: {fileID: 0}
  m_GameObject: {fileID: 0}
  m_Enabled: 1
  m_EditorHideFlags: 0
  m_Script: {fileID: 11500000, guid: a07b5cd0b1b829245bc8c4b6978793e8, type: 3}
  m_Name: Localization Settings
  m_EditorClassIdentifier: 
  m_StartupSelectors:
  - rid: 5241248260127981579
  - rid: 5241248260127981580
  - rid: 5241248260127981581
  m_AvailableLocales:
    rid: 5241248260127981582
  m_AssetDatabase:
    rid: 5241248260127981583
  m_StringDatabase:
    rid: 5241248260127981584
  m_Metadata:
    m_Items: []
  m_ProjectLocaleIdentifier:
    m_Code: en
  m_PreloadBehavior: 1
  m_InitializeSynchronously: 0
  references:
    version: 2
    RefIds:
    - rid: -2
      type: {class: , ns: , asm: }
    - rid: 5241248260127981579
      type: {class: CommandLineLocaleSelector, ns: UnityEngine.Localization.Settings,
        asm: Unity.Localization}
      data:
        m_CommandLineArgument: -language=
    - rid: 5241248260127981580
      type: {class: SystemLocaleSelector, ns: UnityEngine.Localization.Settings, asm: Unity.Localization}
      data: 
    - rid: 5241248260127981581
      type: {class: SpecificLocaleSelector, ns: UnityEngine.Localization.Settings,
        asm: Unity.Localization}
      data:
        m_LocaleId:
          m_Code: en
    - rid: 5241248260127981582
      type: {class: LocalesProvider, ns: UnityEngine.Localization.Settings, asm: Unity.Localization}
      data: 
    - rid: 5241248260127981583
      type: {class: LocalizedAssetDatabase, ns: UnityEngine.Localization.Settings,
        asm: Unity.Localization}
      data:
        m_DefaultTableReference:
          m_TableCollectionName: 
        m_CustomTableProvider:
          rid: -2
        m_CustomTablePostprocessor:
          rid: -2
        m_UseFallback: 0
    - rid: 5241248260127981584
      type: {class: LocalizedStringDatabase, ns: UnityEngine.Localization.Settings,
        asm: Unity.Localization}
      data:
        m_DefaultTableReference:
          m_TableCollectionName: 
        m_CustomTableProvider:
          rid: -2
        m_CustomTablePostprocessor:
          rid: -2
        m_UseFallback: 0
        m_MissingTranslationState: 1
        m_NoTranslationFoundMessage: No translation found for '{key}' in {table.TableCollectionName}
        m_SmartFormat:
          rid: 5241248260127981585
    - rid: 5241248260127981585
      type: {class: SmartFormatter, ns: UnityEngine.Localization.SmartFormat, asm: Unity.Localization}
      data:
        m_Settings:
          rid: 5241248260127981586
        m_Parser:
          rid: 5241248260127981587
        m_Sources:
        - rid: 5241248260127981588
        - rid: 5241248260127981589
        - rid: 5241248260127981590
        - rid: 5241248260127981591
        - rid: 5241248260127981592
        - rid: 5241248260127981593
        - rid: 5241248260127981594
        m_Formatters:
        - rid: 5241248260127981588
        - rid: 5241248260127981595
        - rid: 5241248260127981596
        - rid: 5241248260127981597
        - rid: 5241248260127981598
        - rid: 5241248260127981599
        - rid: 5241248260127981600
        - rid: 5241248260127981601
        - rid: 5241248260127981602
    - rid: 5241248260127981586
      type: {class: SmartSettings, ns: UnityEngine.Localization.SmartFormat.Core.Settings,
        asm: Unity.Localization}
      data:
        m_FormatErrorAction: 0
        m_ParseErrorAction: 0
        m_CaseSensitivity: 0
        m_ConvertCharacterStringLiterals: 1
    - rid: 5241248260127981587
      type: {class: Parser, ns: UnityEngine.Localization.SmartFormat.Core.Parsing,
        asm: Unity.Localization}
      data:
        m_OpeningBrace: 123
        m_ClosingBrace: 125
        m_Settings:
          rid: 5241248260127981586
        m_AlphanumericSelectors: 1
        m_AllowedSelectorChars: _-
        m_Operators: '[]().,'
        m_AlternativeEscaping: 0
        m_AlternativeEscapeChar: 92
    - rid: 5241248260127981588
      type: {class: ListFormatter, ns: UnityEngine.Localization.SmartFormat.Extensions,
        asm: Unity.Localization}
      data:
        m_Names:
        - list
        - l
        - 
        m_SmartSettings:
          rid: 5241248260127981586
    - rid: 5241248260127981589
      type: {class: PersistentVariablesSource, ns: UnityEngine.Localization.SmartFormat.Extensions,
        asm: Unity.Localization}
      data:
        m_Groups: []
    - rid: 5241248260127981590
      type: {class: DictionarySource, ns: UnityEngine.Localization.SmartFormat.Extensions,
        asm: Unity.Localization}
      data: 
    - rid: 5241248260127981591
      type: {class: ValueTupleSource, ns: UnityEngine.Localization.SmartFormat.Extensions,
        asm: Unity.Localization}
      data: 
    - rid: 5241248260127981592
      type: {class: XmlSource, ns: UnityEngine.Localization.SmartFormat.Extensions,
        asm: Unity.Localization}
      data: 
    - rid: 5241248260127981593
      type: {class: ReflectionSource, ns: UnityEngine.Localization.SmartFormat.Extensions,
        asm: Unity.Localization}
      data: 
    - rid: 5241248260127981594
      type: {class: DefaultSource, ns: UnityEngine.Localization.SmartFormat.Extensions,
        asm: Unity.Localization}
      data: 
    - rid: 5241248260127981595
      type: {class: PluralLocalizationFormatter, ns: UnityEngine.Localization.SmartFormat.Extensions,
        asm: Unity.Localization}
      data:
        m_Names:
        - plural
        - p
        - 
        m_DefaultTwoLetterISOLanguageName: en
    - rid: 5241248260127981596
      type: {class: ConditionalFormatter, ns: UnityEngine.Localization.SmartFormat.Extensions,
        asm: Unity.Localization}
      data:
        m_Names:
        - conditional
        - cond
        - 
    - rid: 5241248260127981597
      type: {class: TimeFormatter, ns: UnityEngine.Localization.SmartFormat.Extensions,
        asm: Unity.Localization}
      data:
        m_Names:
        - timespan
        - time
        - t
        - 
        m_DefaultFormatOptions: 4646
    - rid: 5241248260127981598
      type: {class: XElementFormatter, ns: UnityEngine.Localization.SmartFormat.Extensions,
        asm: Unity.Localization}
      data:
        m_Names:
        - xelement
        - xml
        - x
        - 
    - rid: 5241248260127981599
      type: {class: ChooseFormatter, ns: UnityEngine.Localization.SmartFormat.Extensions,
        asm: Unity.Localization}
      data:
        m_Names:
        - choose
        - c
        m_SplitChar: 124
    - rid: 5241248260127981600
      type: {class: SubStringFormatter, ns: UnityEngine.Localization.SmartFormat.Extensions,
        asm: Unity.Localization}
      data:
        m_Names:
        - substr
        m_ParameterDelimiter: 44
        m_NullDisplayString: (null)
        m_OutOfRangeBehavior: 0
    - rid: 5241248260127981601
      type: {class: IsMatchFormatter, ns: UnityEngine.Localization.SmartFormat.Extensions,
        asm: Unity.Localization}
      data:
        m_Names:
        - ismatch
    - rid: 5241248260127981602
      type: {class: DefaultFormatter, ns: UnityEngine.Localization.SmartFormat.Extensions,
        asm: Unity.Localization}
      data:
        m_Names:
        - default
        - d
        - 
