%YAML 1.1
%TAG !u! tag:unity3d.com,2011:
--- !u!114 &-8603547110900481823
MonoBehaviour:
  m_ObjectHideFlags: 3
  m_CorrespondingSourceObject: {fileID: 0}
  m_PrefabInstance: {fileID: 0}
  m_PrefabAsset: {fileID: 0}
  m_GameObject: {fileID: 0}
  m_Enabled: 1
  m_EditorHideFlags: 0
  m_Script: {fileID: 11500000, guid: 899c54efeace73346a0a16faa3afe726, type: 3}
  m_Name: Vignette
  m_EditorClassIdentifier: 
  active: 1
  color:
    m_OverrideState: 1
    m_Value: {r: 0, g: 0, b: 0, a: 1}
  center:
    m_OverrideState: 1
    m_Value: {x: 0.5, y: 0.5}
  intensity:
    m_OverrideState: 1
    m_Value: 0
  smoothness:
    m_OverrideState: 1
    m_Value: 0.2
  rounded:
    m_OverrideState: 1
    m_Value: 0
--- !u!114 &-7332057718913259255
MonoBehaviour:
  m_ObjectHideFlags: 3
  m_CorrespondingSourceObject: {fileID: 0}
  m_PrefabInstance: {fileID: 0}
  m_PrefabAsset: {fileID: 0}
  m_GameObject: {fileID: 0}
  m_Enabled: 1
  m_EditorHideFlags: 0
  m_Script: {fileID: 11500000, guid: 0b2db86121404754db890f4c8dfe81b2, type: 3}
  m_Name: Bloom
  m_EditorClassIdentifier: 
  active: 1
  skipIterations:
    m_OverrideState: 1
    m_Value: 1
  threshold:
    m_OverrideState: 1
    m_Value: 0.9
  intensity:
    m_OverrideState: 1
    m_Value: 0
  scatter:
    m_OverrideState: 1
    m_Value: 0.7
  clamp:
    m_OverrideState: 1
    m_Value: 65472
  tint:
    m_OverrideState: 1
    m_Value: {r: 1, g: 1, b: 1, a: 1}
  highQualityFiltering:
    m_OverrideState: 1
    m_Value: 0
  downscale:
    m_OverrideState: 1
    m_Value: 0
  maxIterations:
    m_OverrideState: 1
    m_Value: 6
  dirtTexture:
    m_OverrideState: 1
    m_Value: {fileID: 0}
    dimension: 1
  dirtIntensity:
    m_OverrideState: 1
    m_Value: 0
--- !u!114 &-4964818849425194327
MonoBehaviour:
  m_ObjectHideFlags: 3
  m_CorrespondingSourceObject: {fileID: 0}
  m_PrefabInstance: {fileID: 0}
  m_PrefabAsset: {fileID: 0}
  m_GameObject: {fileID: 0}
  m_Enabled: 1
  m_EditorHideFlags: 0
  m_Script: {fileID: 11500000, guid: c01700fd266d6914ababb731e09af2eb, type: 3}
  m_Name: DepthOfField
  m_EditorClassIdentifier: 
  active: 1
  mode:
    m_OverrideState: 1
    m_Value: 0
  gaussianStart:
    m_OverrideState: 1
    m_Value: 10
  gaussianEnd:
    m_OverrideState: 1
    m_Value: 30
  gaussianMaxRadius:
    m_OverrideState: 1
    m_Value: 1
  highQualitySampling:
    m_OverrideState: 1
    m_Value: 0
  focusDistance:
    m_OverrideState: 1
    m_Value: 10
  aperture:
    m_OverrideState: 1
    m_Value: 5.6
  focalLength:
    m_OverrideState: 1
    m_Value: 50
  bladeCount:
    m_OverrideState: 1
    m_Value: 5
  bladeCurvature:
    m_OverrideState: 1
    m_Value: 1
  bladeRotation:
    m_OverrideState: 1
    m_Value: 0
--- !u!114 &-4717988866289943721
MonoBehaviour:
  m_ObjectHideFlags: 3
  m_CorrespondingSourceObject: {fileID: 0}
  m_PrefabInstance: {fileID: 0}
  m_PrefabAsset: {fileID: 0}
  m_GameObject: {fileID: 0}
  m_Enabled: 1
  m_EditorHideFlags: 0
  m_Script: {fileID: 11500000, guid: 3eb4b772797da9440885e8bd939e9560, type: 3}
  m_Name: ColorCurves
  m_EditorClassIdentifier: 
  active: 1
  master:
    m_OverrideState: 1
    m_Value:
      <length>k__BackingField: 2
      m_Loop: 0
      m_ZeroValue: 0
      m_Range: 1
      m_Curve:
        serializedVersion: 2
        m_Curve:
        - serializedVersion: 3
          time: 0
          value: 0
          inSlope: 1
          outSlope: 1
          tangentMode: 0
          weightedMode: 0
          inWeight: 0
          outWeight: 0
        - serializedVersion: 3
          time: 1
          value: 1
          inSlope: 1
          outSlope: 1
          tangentMode: 0
          weightedMode: 0
          inWeight: 0
          outWeight: 0
        m_PreInfinity: 2
        m_PostInfinity: 2
        m_RotationOrder: 4
  red:
    m_OverrideState: 1
    m_Value:
      <length>k__BackingField: 2
      m_Loop: 0
      m_ZeroValue: 0
      m_Range: 1
      m_Curve:
        serializedVersion: 2
        m_Curve:
        - serializedVersion: 3
          time: 0
          value: 0
          inSlope: 1
          outSlope: 1
          tangentMode: 0
          weightedMode: 0
          inWeight: 0
          outWeight: 0
        - serializedVersion: 3
          time: 1
          value: 1
          inSlope: 1
          outSlope: 1
          tangentMode: 0
          weightedMode: 0
          inWeight: 0
          outWeight: 0
        m_PreInfinity: 2
        m_PostInfinity: 2
        m_RotationOrder: 4
  green:
    m_OverrideState: 1
    m_Value:
      <length>k__BackingField: 2
      m_Loop: 0
      m_ZeroValue: 0
      m_Range: 1
      m_Curve:
        serializedVersion: 2
        m_Curve:
        - serializedVersion: 3
          time: 0
          value: 0
          inSlope: 1
          outSlope: 1
          tangentMode: 0
          weightedMode: 0
          inWeight: 0
          outWeight: 0
        - serializedVersion: 3
          time: 1
          value: 1
          inSlope: 1
          outSlope: 1
          tangentMode: 0
          weightedMode: 0
          inWeight: 0
          outWeight: 0
        m_PreInfinity: 2
        m_PostInfinity: 2
        m_RotationOrder: 4
  blue:
    m_OverrideState: 1
    m_Value:
      <length>k__BackingField: 2
      m_Loop: 0
      m_ZeroValue: 0
      m_Range: 1
      m_Curve:
        serializedVersion: 2
        m_Curve:
        - serializedVersion: 3
          time: 0
          value: 0
          inSlope: 1
          outSlope: 1
          tangentMode: 0
          weightedMode: 0
          inWeight: 0
          outWeight: 0
        - serializedVersion: 3
          time: 1
          value: 1
          inSlope: 1
          outSlope: 1
          tangentMode: 0
          weightedMode: 0
          inWeight: 0
          outWeight: 0
        m_PreInfinity: 2
        m_PostInfinity: 2
        m_RotationOrder: 4
  hueVsHue:
    m_OverrideState: 1
    m_Value:
      <length>k__BackingField: 0
      m_Loop: 1
      m_ZeroValue: 0.5
      m_Range: 1
      m_Curve:
        serializedVersion: 2
        m_Curve: []
        m_PreInfinity: 2
        m_PostInfinity: 2
        m_RotationOrder: 4
  hueVsSat:
    m_OverrideState: 1
    m_Value:
      <length>k__BackingField: 0
      m_Loop: 1
      m_ZeroValue: 0.5
      m_Range: 1
      m_Curve:
        serializedVersion: 2
        m_Curve: []
        m_PreInfinity: 2
        m_PostInfinity: 2
        m_RotationOrder: 4
  satVsSat:
    m_OverrideState: 1
    m_Value:
      <length>k__BackingField: 0
      m_Loop: 0
      m_ZeroValue: 0.5
      m_Range: 1
      m_Curve:
        serializedVersion: 2
        m_Curve: []
        m_PreInfinity: 2
        m_PostInfinity: 2
        m_RotationOrder: 4
  lumVsSat:
    m_OverrideState: 1
    m_Value:
      <length>k__BackingField: 0
      m_Loop: 0
      m_ZeroValue: 0.5
      m_Range: 1
      m_Curve:
        serializedVersion: 2
        m_Curve: []
        m_PreInfinity: 2
        m_PostInfinity: 2
        m_RotationOrder: 4
--- !u!114 &-3216739812753173596
MonoBehaviour:
  m_ObjectHideFlags: 3
  m_CorrespondingSourceObject: {fileID: 0}
  m_PrefabInstance: {fileID: 0}
  m_PrefabAsset: {fileID: 0}
  m_GameObject: {fileID: 0}
  m_Enabled: 1
  m_EditorHideFlags: 0
  m_Script: {fileID: 11500000, guid: c5e1dc532bcb41949b58bc4f2abfbb7e, type: 3}
  m_Name: LensDistortion
  m_EditorClassIdentifier: 
  active: 1
  intensity:
    m_OverrideState: 1
    m_Value: 0
  xMultiplier:
    m_OverrideState: 1
    m_Value: 1
  yMultiplier:
    m_OverrideState: 1
    m_Value: 1
  center:
    m_OverrideState: 1
    m_Value: {x: 0.5, y: 0.5}
  scale:
    m_OverrideState: 1
    m_Value: 1
--- !u!114 &-1487611674794900713
MonoBehaviour:
  m_ObjectHideFlags: 3
  m_CorrespondingSourceObject: {fileID: 0}
  m_PrefabInstance: {fileID: 0}
  m_PrefabAsset: {fileID: 0}
  m_GameObject: {fileID: 0}
  m_Enabled: 1
  m_EditorHideFlags: 0
  m_Script: {fileID: 11500000, guid: ccf1aba9553839d41ae37dd52e9ebcce, type: 3}
  m_Name: MotionBlur
  m_EditorClassIdentifier: 
  active: 1
  mode:
    m_OverrideState: 1
    m_Value: 0
  quality:
    m_OverrideState: 1
    m_Value: 0
  intensity:
    m_OverrideState: 1
    m_Value: 0
  clamp:
    m_OverrideState: 1
    m_Value: 0.05
--- !u!114 &-1240984301595366189
MonoBehaviour:
  m_ObjectHideFlags: 3
  m_CorrespondingSourceObject: {fileID: 0}
  m_PrefabInstance: {fileID: 0}
  m_PrefabAsset: {fileID: 0}
  m_GameObject: {fileID: 0}
  m_Enabled: 1
  m_EditorHideFlags: 0
  m_Script: {fileID: 11500000, guid: fb60a22f311433c4c962b888d1393f88, type: 3}
  m_Name: PaniniProjection
  m_EditorClassIdentifier: 
  active: 1
  distance:
    m_OverrideState: 1
    m_Value: 0
  cropToFit:
    m_OverrideState: 1
    m_Value: 1
--- !u!114 &-699369520953856779
MonoBehaviour:
  m_ObjectHideFlags: 3
  m_CorrespondingSourceObject: {fileID: 0}
  m_PrefabInstance: {fileID: 0}
  m_PrefabAsset: {fileID: 0}
  m_GameObject: {fileID: 0}
  m_Enabled: 1
  m_EditorHideFlags: 0
  m_Script: {fileID: 11500000, guid: 97c23e3b12dc18c42a140437e53d3951, type: 3}
  m_Name: Tonemapping
  m_EditorClassIdentifier: 
  active: 1
  mode:
    m_OverrideState: 1
    m_Value: 0
  neutralHDRRangeReductionMode:
    m_OverrideState: 1
    m_Value: 2
  acesPreset:
    m_OverrideState: 1
    m_Value: 3
  hueShiftAmount:
    m_OverrideState: 1
    m_Value: 0
  detectPaperWhite:
    m_OverrideState: 1
    m_Value: 0
  paperWhite:
    m_OverrideState: 1
    m_Value: 300
  detectBrightnessLimits:
    m_OverrideState: 1
    m_Value: 1
  minNits:
    m_OverrideState: 1
    m_Value: 0.005
  maxNits:
    m_OverrideState: 1
    m_Value: 1000
--- !u!114 &-611760787635861796
MonoBehaviour:
  m_ObjectHideFlags: 3
  m_CorrespondingSourceObject: {fileID: 0}
  m_PrefabInstance: {fileID: 0}
  m_PrefabAsset: {fileID: 0}
  m_GameObject: {fileID: 0}
  m_Enabled: 1
  m_EditorHideFlags: 0
  m_Script: {fileID: 11500000, guid: 70afe9e12c7a7ed47911bb608a23a8ff, type: 3}
  m_Name: SplitToning
  m_EditorClassIdentifier: 
  active: 1
  shadows:
    m_OverrideState: 1
    m_Value: {r: 0.5, g: 0.5, b: 0.5, a: 1}
  highlights:
    m_OverrideState: 1
    m_Value: {r: 0.5, g: 0.5, b: 0.5, a: 1}
  balance:
    m_OverrideState: 1
    m_Value: 0
--- !u!114 &11400000
MonoBehaviour:
  m_ObjectHideFlags: 0
  m_CorrespondingSourceObject: {fileID: 0}
  m_PrefabInstance: {fileID: 0}
  m_PrefabAsset: {fileID: 0}
  m_GameObject: {fileID: 0}
  m_Enabled: 1
  m_EditorHideFlags: 0
  m_Script: {fileID: 11500000, guid: d7fd9488000d3734a9e00ee676215985, type: 3}
  m_Name: DefaultVolumeProfile
  m_EditorClassIdentifier: 
  components:
  - {fileID: -4964818849425194327}
  - {fileID: -611760787635861796}
  - {fileID: -699369520953856779}
  - {fileID: -3216739812753173596}
  - {fileID: 7197404293145944472}
  - {fileID: 4664351776926214312}
  - {fileID: 9152140754411698548}
  - {fileID: 5919606314680717074}
  - {fileID: 4559618464611432613}
  - {fileID: -1240984301595366189}
  - {fileID: -4717988866289943721}
  - {fileID: -8603547110900481823}
  - {fileID: 393467009646364944}
  - {fileID: 4046244361985098751}
  - {fileID: 5000780503423151070}
  - {fileID: -1487611674794900713}
  - {fileID: 3960915806414487054}
  - {fileID: -7332057718913259255}
  - {fileID: 4463161615168655799}
--- !u!114 &393467009646364944
MonoBehaviour:
  m_ObjectHideFlags: 3
  m_CorrespondingSourceObject: {fileID: 0}
  m_PrefabInstance: {fileID: 0}
  m_PrefabAsset: {fileID: 0}
  m_GameObject: {fileID: 0}
  m_Enabled: 1
  m_EditorHideFlags: 0
  m_Script: {fileID: 11500000, guid: 06437c1ff663d574d9447842ba0a72e4, type: 3}
  m_Name: ScreenSpaceLensFlare
  m_EditorClassIdentifier: 
  active: 1
  intensity:
    m_OverrideState: 1
    m_Value: 0
  tintColor:
    m_OverrideState: 1
    m_Value: {r: 1, g: 1, b: 1, a: 1}
  bloomMip:
    m_OverrideState: 1
    m_Value: 1
  firstFlareIntensity:
    m_OverrideState: 1
    m_Value: 1
  secondaryFlareIntensity:
    m_OverrideState: 1
    m_Value: 1
  warpedFlareIntensity:
    m_OverrideState: 1
    m_Value: 1
  warpedFlareScale:
    m_OverrideState: 1
    m_Value: {x: 1, y: 1}
  samples:
    m_OverrideState: 1
    m_Value: 1
  sampleDimmer:
    m_OverrideState: 1
    m_Value: 0.5
  vignetteEffect:
    m_OverrideState: 1
    m_Value: 1
  startingPosition:
    m_OverrideState: 1
    m_Value: 1.25
  scale:
    m_OverrideState: 1
    m_Value: 1.5
  streaksIntensity:
    m_OverrideState: 1
    m_Value: 0
  streaksLength:
    m_OverrideState: 1
    m_Value: 0.5
  streaksOrientation:
    m_OverrideState: 1
    m_Value: 0
  streaksThreshold:
    m_OverrideState: 1
    m_Value: 0.25
  resolution:
    m_OverrideState: 1
    m_Value: 4
  chromaticAbberationIntensity:
    m_OverrideState: 1
    m_Value: 0.5
--- !u!114 &3960915806414487054
MonoBehaviour:
  m_ObjectHideFlags: 3
  m_CorrespondingSourceObject: {fileID: 0}
  m_PrefabInstance: {fileID: 0}
  m_PrefabAsset: {fileID: 0}
  m_GameObject: {fileID: 0}
  m_Enabled: 1
  m_EditorHideFlags: 0
  m_Script: {fileID: 11500000, guid: 5485954d14dfb9a4c8ead8edb0ded5b1, type: 3}
  m_Name: LiftGammaGain
  m_EditorClassIdentifier: 
  active: 1
  lift:
    m_OverrideState: 1
    m_Value: {x: 1, y: 1, z: 1, w: 0}
  gamma:
    m_OverrideState: 1
    m_Value: {x: 1, y: 1, z: 1, w: 0}
  gain:
    m_OverrideState: 1
    m_Value: {x: 1, y: 1, z: 1, w: 0}
--- !u!114 &4046244361985098751
MonoBehaviour:
  m_ObjectHideFlags: 3
  m_CorrespondingSourceObject: {fileID: 0}
  m_PrefabInstance: {fileID: 0}
  m_PrefabAsset: {fileID: 0}
  m_GameObject: {fileID: 0}
  m_Enabled: 1
  m_EditorHideFlags: 0
  m_Script: {fileID: 11500000, guid: cdfbdbb87d3286943a057f7791b43141, type: 3}
  m_Name: ChannelMixer
  m_EditorClassIdentifier: 
  active: 1
  redOutRedIn:
    m_OverrideState: 1
    m_Value: 100
  redOutGreenIn:
    m_OverrideState: 1
    m_Value: 0
  redOutBlueIn:
    m_OverrideState: 1
    m_Value: 0
  greenOutRedIn:
    m_OverrideState: 1
    m_Value: 0
  greenOutGreenIn:
    m_OverrideState: 1
    m_Value: 100
  greenOutBlueIn:
    m_OverrideState: 1
    m_Value: 0
  blueOutRedIn:
    m_OverrideState: 1
    m_Value: 0
  blueOutGreenIn:
    m_OverrideState: 1
    m_Value: 0
  blueOutBlueIn:
    m_OverrideState: 1
    m_Value: 100
--- !u!114 &4463161615168655799
MonoBehaviour:
  m_ObjectHideFlags: 3
  m_CorrespondingSourceObject: {fileID: 0}
  m_PrefabInstance: {fileID: 0}
  m_PrefabAsset: {fileID: 0}
  m_GameObject: {fileID: 0}
  m_Enabled: 1
  m_EditorHideFlags: 0
  m_Script: {fileID: 11500000, guid: 6bd486065ce11414fa40e631affc4900, type: 3}
  m_Name: ProbeVolumesOptions
  m_EditorClassIdentifier: 
  active: 1
  normalBias:
    m_OverrideState: 1
    m_Value: 0.33
  viewBias:
    m_OverrideState: 1
    m_Value: 0
  scaleBiasWithMinProbeDistance:
    m_OverrideState: 1
    m_Value: 0
  samplingNoise:
    m_OverrideState: 1
    m_Value: 0.1
  animateSamplingNoise:
    m_OverrideState: 1
    m_Value: 1
  leakReductionMode:
    m_OverrideState: 1
    m_Value: 1
  minValidDotProductValue:
    m_OverrideState: 1
    m_Value: 0.1
  occlusionOnlyReflectionNormalization:
    m_OverrideState: 1
    m_Value: 1
--- !u!114 &4559618464611432613
MonoBehaviour:
  m_ObjectHideFlags: 3
  m_CorrespondingSourceObject: {fileID: 0}
  m_PrefabInstance: {fileID: 0}
  m_PrefabAsset: {fileID: 0}
  m_GameObject: {fileID: 0}
  m_Enabled: 1
  m_EditorHideFlags: 0
  m_Script: {fileID: 11500000, guid: 81180773991d8724ab7f2d216912b564, type: 3}
  m_Name: ChromaticAberration
  m_EditorClassIdentifier: 
  active: 1
  intensity:
    m_OverrideState: 1
    m_Value: 0
--- !u!114 &4664351776926214312
MonoBehaviour:
  m_ObjectHideFlags: 3
  m_CorrespondingSourceObject: {fileID: 0}
  m_PrefabInstance: {fileID: 0}
  m_PrefabAsset: {fileID: 0}
  m_GameObject: {fileID: 0}
  m_Enabled: 1
  m_EditorHideFlags: 0
  m_Script: {fileID: 11500000, guid: 558a8e2b6826cf840aae193990ba9f2e, type: 3}
  m_Name: ShadowsMidtonesHighlights
  m_EditorClassIdentifier: 
  active: 1
  shadows:
    m_OverrideState: 1
    m_Value: {x: 1, y: 1, z: 1, w: 0}
  midtones:
    m_OverrideState: 1
    m_Value: {x: 1, y: 1, z: 1, w: 0}
  highlights:
    m_OverrideState: 1
    m_Value: {x: 1, y: 1, z: 1, w: 0}
  shadowsStart:
    m_OverrideState: 1
    m_Value: 0
  shadowsEnd:
    m_OverrideState: 1
    m_Value: 0.3
  highlightsStart:
    m_OverrideState: 1
    m_Value: 0.55
  highlightsEnd:
    m_OverrideState: 1
    m_Value: 1
--- !u!114 &5000780503423151070
MonoBehaviour:
  m_ObjectHideFlags: 3
  m_CorrespondingSourceObject: {fileID: 0}
  m_PrefabInstance: {fileID: 0}
  m_PrefabAsset: {fileID: 0}
  m_GameObject: {fileID: 0}
  m_Enabled: 1
  m_EditorHideFlags: 0
  m_Script: {fileID: 11500000, guid: 66f335fb1ffd8684294ad653bf1c7564, type: 3}
  m_Name: ColorAdjustments
  m_EditorClassIdentifier: 
  active: 1
  postExposure:
    m_OverrideState: 1
    m_Value: 0
  contrast:
    m_OverrideState: 1
    m_Value: 0
  colorFilter:
    m_OverrideState: 1
    m_Value: {r: 1, g: 1, b: 1, a: 1}
  hueShift:
    m_OverrideState: 1
    m_Value: 0
  saturation:
    m_OverrideState: 1
    m_Value: 0
--- !u!114 &5919606314680717074
MonoBehaviour:
  m_ObjectHideFlags: 3
  m_CorrespondingSourceObject: {fileID: 0}
  m_PrefabInstance: {fileID: 0}
  m_PrefabAsset: {fileID: 0}
  m_GameObject: {fileID: 0}
  m_Enabled: 1
  m_EditorHideFlags: 0
  m_Script: {fileID: 11500000, guid: 221518ef91623a7438a71fef23660601, type: 3}
  m_Name: WhiteBalance
  m_EditorClassIdentifier: 
  active: 1
  temperature:
    m_OverrideState: 1
    m_Value: 0
  tint:
    m_OverrideState: 1
    m_Value: 0
--- !u!114 &7197404293145944472
MonoBehaviour:
  m_ObjectHideFlags: 3
  m_CorrespondingSourceObject: {fileID: 0}
  m_PrefabInstance: {fileID: 0}
  m_PrefabAsset: {fileID: 0}
  m_GameObject: {fileID: 0}
  m_Enabled: 1
  m_EditorHideFlags: 0
  m_Script: {fileID: 11500000, guid: 29fa0085f50d5e54f8144f766051a691, type: 3}
  m_Name: FilmGrain
  m_EditorClassIdentifier: 
  active: 1
  type:
    m_OverrideState: 1
    m_Value: 0
  intensity:
    m_OverrideState: 1
    m_Value: 0
  response:
    m_OverrideState: 1
    m_Value: 0.8
  texture:
    m_OverrideState: 1
    m_Value: {fileID: 0}
--- !u!114 &9152140754411698548
MonoBehaviour:
  m_ObjectHideFlags: 3
  m_CorrespondingSourceObject: {fileID: 0}
  m_PrefabInstance: {fileID: 0}
  m_PrefabAsset: {fileID: 0}
  m_GameObject: {fileID: 0}
  m_Enabled: 1
  m_EditorHideFlags: 0
  m_Script: {fileID: 11500000, guid: e021b4c809a781e468c2988c016ebbea, type: 3}
  m_Name: ColorLookup
  m_EditorClassIdentifier: 
  active: 1
  texture:
    m_OverrideState: 1
    m_Value: {fileID: 0}
    dimension: 1
  contribution:
    m_OverrideState: 1
    m_Value: 0
